[
  {
    "privateKey": "bbfbee4961061d506ffbb11dfea64eba16355cbf1d9c29613126ba7fec0aed5d",
    "balance": "10000000000000000000000"
  },
  {
    "privateKey": "804365e293b9fab9bd11bddd39082396d56d30779efbb3ffb0a6089027902c4a",
    "balance": "10000000000000000000000"
  },
  {
    "privateKey": "1f52464c2fb44e9b7e0808f2c5fe56d87b73eb3bca0e72c66f9f74d7c6c9a81f",
    "balance": "10000000000000000000000"
  },
  {
    "privateKey": "905e216d8acdabbd095f11162327c5e6e80cc59a51283732cd4fe1299b33b7a6",
    "balance": "10000000000000000000000"
  },
  {
    "privateKey": "e21bbdc4c57125bec3e05467423dfc3da8754d862140550fc7b3d2833ad1bdeb",
    "balance": "10000000000000000000000"
  },
  {
    "privateKey": "b591fb79dd7065964210e7e527c87f97523da07ef8d16794f09750d5eef959b5",
    "balance": "10000000000000000000000"
  },
  {
    "privateKey": "fe613f76efbfd03a16624ed8d96777966770f353e83d6f7611c11fdfcdfa48d1",
    "balance": "10000000000000000000000"
  },
  {
    "privateKey": "52f94fdeaaf7c8551bda5924f2b52ff438125b9b5170c04ea2e268bd945ff155",
    "balance": "10000000000000000000000"
  },
  {
    "privateKey": "a26ebb1df46424945009db72c7a7ba034027450784b93f34000169b35fd3adaa",
    "balance": "10000000000000000000000"
  },
  {
    "privateKey": "3ff6c8dfd3ab60a14f2a2d4650387f71fe736b519d990073e650092faaa621fa",
    "balance": "10000000000000000000000"
  },
  {
    "privateKey": "99f34926ebf872c6689937d4d61cd35d50d3cbd9d6af255741785697c9f55cca",
    "balance": "10000000000000000000000"
  },
  {
    "privateKey": "b880cc5df5a9a04246e3de63c2ab16f79f22f98afab0a48ad2c8dcb392d97a32",
    "balance": "10000000000000000000000"
  },
  {
    "privateKey": "dfd40f887637d6cadfac1ed48e3cc96c02c32f3c7bad852ad42d6c5876776bd3",
    "balance": "10000000000000000000000"
  },
  {
    "privateKey": "f437253c0564b932c4ae87e906c4fb4b4358c3f110677455a4d3ee2c75597099",
    "balance": "10000000000000000000000"
  },
  {
    "privateKey": "3b9b37426f774566e3f75f7bfb43300b4a5bf25867656fe7f54124e8d171f4e1",
    "balance": "10000000000000000000000"
  },
  {
    "privateKey": "011de45c128617877e9ba772bb01575700a69da2794787838941a3856f8e3bae",
    "balance": "10000000000000000000000"
  },
  {
    "privateKey": "609f2a48fd2a66768c93069d25e148590b8d9f86a59cbefa815a4cd2934ff0b7",
    "balance": "10000000000000000000000"
  },
  {
    "privateKey": "aec60ce6011fa81651c71224fb41c59f6da3689b78580de6673c1cecc3ec8413",
    "balance": "10000000000000000000000"
  },
  {
    "privateKey": "1a0d45599090ca4bd43cf39201af9dcab14fb1b798ec380b15b2ed645792a6f3",
    "balance": "10000000000000000000000"
  },
  {
    "privateKey": "0115ab9a3f02d963f7001ba7e958496acd0280ff200e69fbccb44bb8ffea4f96",
    "balance": "10000000000000000000000"
  },
  {
    "privateKey": "19cb1796832575b3b2ba6aca2f509031f22fefaa986bb9a6e1cac30f63380454",
    "balance": "10000000000000000000000"
  },
  {
    "privateKey": "45d71b142293d8d608f0454f7e1d8a7b86670eb7831b2c9963fd3e0b631687df",
    "balance": "10000000000000000000000"
  },
  {
    "privateKey": "b8cf7163686d1fea0349fdc1e415d73db12dae51d31ff5cc9db95295060da153",
    "balance": "10000000000000000000000"
  },
  {
    "privateKey": "19a507e9d23c477388e9cd37cd1c0c7754c50a7e344fc2d81de94544227bc359",
    "balance": "10000000000000000000000"
  },
  {
    "privateKey": "3c223047eb639a54bdee2ed6885c80b432015c3f330abf418cd8f97997114a4f",
    "balance": "10000000000000000000000"
  },
  {
    "privateKey": "2eea31ec178a86e89ba10e03574fa14a051a5aa6b6d5975067348f0e7b4e16ce",
    "balance": "10000000000000000000000"
  },
  {
    "privateKey": "c51f14435db60762c3bb884ffffee8a5598d4d5c7888bdcef9454e7e3d3cf5cb",
    "balance": "10000000000000000000000"
  },
  {
    "privateKey": "e4a761acc064ccb672a77ba058f372d66bf3ed342eab6435d6bbdf901c61fdc3",
    "balance": "10000000000000000000000"
  },
  {
    "privateKey": "116d030d5c2a45387accab7fd7dc8d6cef58b036128a96742a58d708f1ea98da",
    "balance": "10000000000000000000000"
  },
  {
    "privateKey": "c9e37aac41ee3671a16947a62ea72135bdebda81557e6957b2c50518bbc430e9",
    "balance": "10000000000000000000000"
  },
  {
    "privateKey": "5c9bab38a3ba60c6a85dbae3bde7aff5ab4de1a229b658edbd58a2e8a34220b8",
    "balance": "10000000000000000000000"
  },
  {
    "privateKey": "77a0704df008979c305ad71c26c74e0009b7ff9fb93ee342c693d1a1fd84fc2d",
    "balance": "10000000000000000000000"
  }
]