{
  "arbitragePairs": {
    "WBNB_BUSD": "0x58F876857a02D6762E0101bb5C46A8c1ED44Dc16",
    "Cake_WBNB": "0x0eD7e52944161450477ee417DE9Cd3a859b14fD0",
    "Cake_BUSD": "0x804678fa97d91B974ec2af3c843270886528a9E6",
    "ALPACA_BUSD": "0x7752e1FA9F3a2e860856458517008558DEb989e3",
    "ALPACA_WBNB": "0x1099C2E6Ed6ebA95099c205b599B409305783E43",
    "BUSD_MATH": "0xB7CADa0F120Ca46745A024E6b9FE907B2Fe10CF3",
    "WBNB_MATH": "0x9Efa84173428AF278c7107Ee4C0861DC5D328d29",
    "WSB_BUSD": "0x93aC8BdcCC8B47E09611fde0F294bf6C80579e51",
    "WSB_WBNB": "0xE66783Ef2E2bC51958C032F04a37b6F060581fB9",
    "EGGP_WBNB": "0x8A6CBd5081dA34Fe9D139d92C181Ec5fFce43B4B",
    "EGGP_BUSD": "0x0310FdE54BAef2b64716CDBC781bf52c5737d604",
    "MELODY_WBNB": "0x83bd0ec72A18912849015eA347b98850f5585a22",
    "MELODY_BUSD": "0x1B457Ed628896b56116FA244058c9A764e23e303"
  },
  "tokens": {
    "WBNB": "0xbb4CdB9CBd36B01bD1cBaEBF2De08d9173bc095c",
    "Cake": "0x0E09FaBB73Bd3Ade0a17ECC321fD13a19e81cE82",
    "BUSD": "0xe9e7CEA3DedcA5984780Bafc599bD69ADd087D56",
    "ALPACA": "0x8F0528cE5eF7B51152A59745bEfDD91D97091d2F",
    "MATH": "0xF218184Af829Cf2b0019F8E6F0b2423498a36983",
    "WSB": "0x22168882276e5D5e1da694343b41DD7726eeb288",
    "EGGP": "0x21adB1c644663069e83059AC3f9d9Ca1133D29e4",
    "MELODY": "0x2f619a1270226fD8ed3Df82f0C1e0cd90804346d"
  },
  "arbRoutes": [
    [
      {
        "pairName": "Cake_WBNB",
        "tokenIn": "WBNB",
        "tokenOut": "Cake"
      },
      {
        "pairName": "Cake_BUSD",
        "tokenIn": "Cake",
        "tokenOut": "BUSD"
      },
      {
        "tokenIn": "BUSD",
        "tokenOut": "WBNB",
        "pairName": "WBNB_BUSD"
      }
    ],
    [
      {
        "pairName": "ALPACA_WBNB",
        "tokenIn": "WBNB",
        "tokenOut": "ALPACA"
      },
      {
        "pairName": "ALPACA_BUSD",
        "tokenIn": "ALPACA",
        "tokenOut": "BUSD"
      },
      {
        "tokenIn": "BUSD",
        "tokenOut": "WBNB",
        "pairName": "WBNB_BUSD"
      }
    ],
    [
      {
        "pairName": "WBNB_MATH",
        "tokenIn": "WBNB",
        "tokenOut": "MATH"
      },
      {
        "pairName": "BUSD_MATH",
        "tokenIn": "MATH",
        "tokenOut": "BUSD"
      },
      {
        "tokenIn": "BUSD",
        "tokenOut": "WBNB",
        "pairName": "WBNB_BUSD"
      }
    ],
    [
      {
        "pairName": "WSB_WBNB",
        "tokenIn": "WBNB",
        "tokenOut": "WSB"
      },
      {
        "pairName": "WSB_BUSD",
        "tokenIn": "WSB",
        "tokenOut": "BUSD"
      },
      {
        "tokenIn": "BUSD",
        "tokenOut": "WBNB",
        "pairName": "WBNB_BUSD"
      }
    ],
    [
      {
        "pairName": "EGGP_WBNB",
        "tokenIn": "WBNB",
        "tokenOut": "EGGP"
      },
      {
        "pairName": "EGGP_BUSD",
        "tokenIn": "EGGP",
        "tokenOut": "BUSD"
      },
      {
        "tokenIn": "BUSD",
        "tokenOut": "WBNB",
        "pairName": "WBNB_BUSD"
      }
    ],
    [
      {
        "pairName": "MELODY_WBNB",
        "tokenIn": "WBNB",
        "tokenOut": "MELODY"
      },
      {
        "pairName": "MELODY_BUSD",
        "tokenIn": "MELODY",
        "tokenOut": "BUSD"
      },
      {
        "tokenIn": "BUSD",
        "tokenOut": "WBNB",
        "pairName": "WBNB_BUSD"
      }
    ]
  ]
}