[
  {
    "anonymous": false,
    "inputs": [
      {
        "indexed": true,
        "internalType": "int256",
        "name": "current",
        "type": "int256"
      },
      {
        "indexed": true,
        "internalType": "uint256",
        "name": "roundId",
        "type": "uint256"
      },
      {
        "indexed": false,
        "internalType": "uint256",
        "name": "updatedAt",
        "type": "uint256"
      }
    ],
    "name": "AnswerUpdated",
    "type": "event"
  }
]